/** Grupo 04 **\

CERRON ROCHA, Maria Guadalupe           20172587D
GUTIERREZ FERNANDEZ, Luis Diego         20171165I
PAZ CHIPANA, Leonardo Adrian            20174529A
SANTIBAÑEZ RICRA, Ricardo Daniel        20171293G